<define-tag pagetitle>DSA-4355-1 openssl1.0</define-tag>
<define-tag report_date>2018-12-19</define-tag>
<define-tag secrefs>CVE-2018-0732 CVE-2018-0734 CVE-2018-0737 CVE-2018-5407</define-tag>
<define-tag packages>openssl1.0</define-tag>
<define-tag isvulnerable>yes</define-tag>
<define-tag fixed>yes</define-tag>
<define-tag fixed-section>no</define-tag>

#use wml::debian::security



</dl>
