<define-tag pagetitle>DLA-838-1 shadow</define-tag>
<define-tag report_date>2017-2-26</define-tag>
<define-tag secrefs>CVE-2017-2616 Bug#855943</define-tag>
<define-tag packages>shadow</define-tag>
<define-tag isvulnerable>yes</define-tag>
<define-tag fixed>yes</define-tag>
<define-tag fixed-section>no</define-tag>

#use wml::debian::security

