<define-tag pagetitle>DLA-1023-1 tiff3</define-tag>
<define-tag report_date>2017-7-11</define-tag>
<define-tag secrefs>CVE-2017-9936 Bug#866113</define-tag>
<define-tag packages>tiff3</define-tag>
<define-tag isvulnerable>yes</define-tag>
<define-tag fixed>yes</define-tag>
<define-tag fixed-section>no</define-tag>

#use wml::debian::security

