<define-tag pagetitle>DLA-1613-1 sqlite3</define-tag>
<define-tag report_date>2018-12-22</define-tag>
<define-tag secrefs>CVE-2018-20346</define-tag>
<define-tag packages>sqlite3</define-tag>
<define-tag isvulnerable>yes</define-tag>
<define-tag fixed>yes</define-tag>
<define-tag fixed-section>no</define-tag>

#use wml::debian::security

