<define-tag pagetitle>DLA-1290-1 libvpx</define-tag>
<define-tag report_date>2018-2-24</define-tag>
<define-tag secrefs>CVE-2017-13194</define-tag>
<define-tag packages>libvpx</define-tag>
<define-tag isvulnerable>yes</define-tag>
<define-tag fixed>yes</define-tag>
<define-tag fixed-section>no</define-tag>

#use wml::debian::security

