<define-tag pagetitle>DLA-525-1 gimp</define-tag>
<define-tag report_date>2016-6-25</define-tag>
<define-tag secrefs>CVE-2016-4994</define-tag>
<define-tag packages>gimp</define-tag>
<define-tag isvulnerable>yes</define-tag>
<define-tag fixed>yes</define-tag>
<define-tag fixed-section>no</define-tag>

#use wml::debian::security

