<define-tag pagetitle>DLA-450-1 gdk-pixbuf</define-tag>
<define-tag report_date>2016-4-30</define-tag>
<define-tag secrefs>CVE-2015-7552 CVE-2015-7674</define-tag>
<define-tag packages>gdk-pixbuf</define-tag>
<define-tag isvulnerable>yes</define-tag>
<define-tag fixed>yes</define-tag>
<define-tag fixed-section>no</define-tag>

#use wml::debian::security

